Project 2: Data Mining, Classification, Prediction
…
# Renaming the columns
fatality <- fatality %>% rename(FatalityRate = mrall, BeerTax = beertax, 
    Jail = jaild, CommunityServ = comserd, MilesAvg = vmiles, 
    Unemployment = unrate, PersonalIncome = perinc)
fatality <- fatality %>% mutate(Jail = ifelse(Jail == "yes", 
    "TRUE", "FALSE"))
fatality <- fatality %>% mutate(CommunityServ = ifelse(CommunityServ == 
    "yes", "TRUE", "FALSE"))
fatality %>% filter(Jail == "TRUE")

## # A tibble: 28 x 10
##       X1 state  year FatalityRate BeerTax Jail  CommunityServ MilesAvg
##    <dbl> <dbl> <dbl>        <dbl>   <dbl> <chr> <chr>            <dbl>
##  1     3     4  1987         2.77   0.360 TRUE  TRUE              9.37
##  2     4     4  1988         2.71   0.346 TRUE  TRUE              9.82
##  3    11     9  1987         1.40   0.226 TRUE  TRUE              8.34
##  4    12     9  1988         1.50   0.217 TRUE  TRUE              8.06
##  5    27    20  1987         1.98   0.406 TRUE  TRUE              8.30
##  6    28    20  1988         1.94   0.390 TRUE  TRUE              8.48
##  7    31    22  1987         1.85   0.726 TRUE  TRUE              6.86
##  8    32    22  1988         2.10   0.699 TRUE  TRUE              7.87
##  9    33    23  1987         1.95   0.788 TRUE  FALSE             9.07
## 10    34    23  1988         2.12   0.758 TRUE  FALSE             9.46
## #  with 18 more rows, and 2 more variables: Unemployment <dbl>,
## #   PersonalIncome <dbl>
…
